Array
(
    [url] => o=2620&d=8094&wt=1.621&v=275000&l=20&w=15&h=10&cod=0&type=2&originCoord=&destinationCoord=
    [user_agent] => Mozilla/5.0 (Windows NT 10.0; Win64; x64) AppleWebKit/537.36 (KHTML, like Gecko) Chrome/96.0.4664.110 Safari/537.36
)
